0,15.65032992
87.69792935,145.4096163
134.4701583,649.1469431
228.0146163,3699.787064
298.1729598,3671.220393
368.3313033,5196.610556
485.2618758,4319.263225
572.9598051,3686.432584
847.7466504,3816.752688
988.0633374,3270.410712
1087.454324,2810.276992
1175.152253,2206.223328
1309.622412,1573.532891
1485.01827,1185.569449
1865.042631,913.3273162
2432.155907,684.8114687
2899.878197,556.7171111
3198.051157,25.2368142
