0.000000000000000000e+00,6.952397925490765296e+00,4.944436067950764624e+00,5.188996113350665240e+00,6.197668992240013885e+00,nan,7.406400466823721551e+00,3.937500000000001776e+00
6.952397925490765296e+00,0.000000000000000000e+00,1.180866757212877616e+01,8.156249999999998224e+00,9.553599276241419247e+00,nan,4.788257810315225349e+00,1.030974854394462525e+01
4.944436067950764624e+00,1.180866757212877616e+01,0.000000000000000000e+00,8.358326508132218891e+00,6.690484520904753651e+00,nan,1.110944735177723608e+01,4.086012102900872023e+00
5.188996113350665240e+00,8.156249999999998224e+00,8.358326508132218891e+00,0.000000000000000000e+00,1.137996840971013235e+01,nan,1.106036661838317059e+01,4.544259019836822233e+00
6.197668992240013885e+00,9.553599276241419247e+00,6.690484520904753651e+00,1.137996840971013235e+01,0.000000000000000000e+00,nan,6.291277607152790274e+00,9.094392554611514967e+00
nan,nan,nan,nan,nan,nan,nan,nan
7.406400466823721551e+00,4.788257810315225349e+00,1.110944735177723608e+01,1.106036661838317059e+01,6.291277607152790274e+00,nan,0.000000000000000000e+00,1.134384823924256835e+01
3.937500000000001776e+00,1.030974854394462525e+01,4.086012102900872023e+00,4.544259019836822233e+00,9.094392554611514967e+00,nan,1.134384823924256835e+01,0.000000000000000000e+00
